%YAML 1.1
%TAG !u! tag:unity3d.com,2011:
--- !u!114 &11400000
MonoBehaviour:
  m_ObjectHideFlags: 0
  m_PrefabParentObject: {fileID: 0}
  m_PrefabInternal: {fileID: 0}
  m_GameObject: {fileID: 0}
  m_Enabled: 1
  m_EditorHideFlags: 0
  m_Script: {fileID: 11500000, guid: 48dfa594a1a1eff49a477db0e4603137, type: 3}
  m_Name: Sun
  m_EditorClassIdentifier: 
  modelName: sun
  alphabetCharacter: s
  idleSound: {fileID: 0}
  modelDescription: Sun is the star present at the center of the solar system. It
    is a sphere of hot plasma. It is the most important source of life on Earth.
  _sprite: {fileID: 21300000, guid: 452dcadfc0f3d8840a0ed440c6427d2e, type: 3}
  isWaterAnimal: 0
  isCaveAnimal: 0
  isSnowAnimal: 0
  isTransport: 0
  _rotation: {x: 0, y: 0, z: 0, w: 0}
