%YAML 1.1
%TAG !u! tag:unity3d.com,2011:
--- !u!114 &11400000
MonoBehaviour:
  m_ObjectHideFlags: 0
  m_PrefabParentObject: {fileID: 0}
  m_PrefabInternal: {fileID: 0}
  m_GameObject: {fileID: 0}
  m_Enabled: 1
  m_EditorHideFlags: 0
  m_Script: {fileID: 11500000, guid: 48dfa594a1a1eff49a477db0e4603137, type: 3}
  m_Name: aeroplane
  m_EditorClassIdentifier: 
  modelName: aeroplane
  alphabetCharacter: A
  idleSound: {fileID: 0}
  modelDescription: 'An aeroplane is a mode of air transport which is used to transport
    people or things from one place to another. Aeroplanes cover large distances in
    a short amount of time. '
  _sprite: {fileID: 21300000, guid: 0bdfcb628e5aac64a9d5fd391e1bf1c4, type: 3}
  isWaterAnimal: 0
  isCaveAnimal: 0
  isSnowAnimal: 0
  isTransport: 1
  _rotation: {x: 0, y: 27, z: -13, w: 0}
