%YAML 1.1
%TAG !u! tag:unity3d.com,2011:
--- !u!114 &11400000
MonoBehaviour:
  m_ObjectHideFlags: 0
  m_PrefabParentObject: {fileID: 0}
  m_PrefabInternal: {fileID: 0}
  m_GameObject: {fileID: 0}
  m_Enabled: 1
  m_EditorHideFlags: 0
  m_Script: {fileID: 11500000, guid: 48dfa594a1a1eff49a477db0e4603137, type: 3}
  m_Name: Boat
  m_EditorClassIdentifier: 
  modelName: boat
  alphabetCharacter: B
  idleSound: {fileID: 0}
  modelDescription: A boat is designed to float on water, and can be used for travel,
    recreation, sports, fishing, transportation, military use and for rescue operations.
    Boats can be powered by humans by wind, or by one or more engines.
  _sprite: {fileID: 21300000, guid: d5364a854cb576b4da163e5f0de4f8d7, type: 3}
  isWaterAnimal: 0
  isCaveAnimal: 0
  isSnowAnimal: 0
  isTransport: 1
  _rotation: {x: 0, y: 0, z: 0, w: 0}
