%YAML 1.1
%TAG !u! tag:unity3d.com,2011:
--- !u!114 &11400000
MonoBehaviour:
  m_ObjectHideFlags: 0
  m_PrefabParentObject: {fileID: 0}
  m_PrefabInternal: {fileID: 0}
  m_GameObject: {fileID: 0}
  m_Enabled: 1
  m_EditorHideFlags: 0
  m_Script: {fileID: 11500000, guid: 48dfa594a1a1eff49a477db0e4603137, type: 3}
  m_Name: Elephant
  m_EditorClassIdentifier: 
  modelName: elephant
  alphabetCharacter: E
  idleSound: {fileID: 8300000, guid: 52ea6776b07af7945b480cf6ccd620c4, type: 3}
  modelDescription: Elephants are the largest land mammals and comes under the category
    of herbivores. They are found most often in savannas, grasslands, and forests,
    but they also live in deserts, swamps, and mountains. The Asian elephant has one
    finger on the end of the trunk the African has two. They can be found in black,
    brown and grey in colour.
  _sprite: {fileID: 21300000, guid: e56350cd89da2c14d96e72dbfe8d167d, type: 3}
  isWaterAnimal: 0
  isCaveAnimal: 0
  isSnowAnimal: 0
  _rotation: {x: 0, y: 0, z: 0, w: 0}
