%YAML 1.1
%TAG !u! tag:unity3d.com,2011:
--- !u!114 &11400000
MonoBehaviour:
  m_ObjectHideFlags: 0
  m_PrefabParentObject: {fileID: 0}
  m_PrefabInternal: {fileID: 0}
  m_GameObject: {fileID: 0}
  m_Enabled: 1
  m_EditorHideFlags: 0
  m_Script: {fileID: 11500000, guid: 48dfa594a1a1eff49a477db0e4603137, type: 3}
  m_Name: Taxi
  m_EditorClassIdentifier: 
  modelName: Taxi
  alphabetCharacter: T
  idleSound: {fileID: 0}
  modelDescription: A taxi is a motor vehicle. It carries passengers from one place
    to another in return for money. It often painted with a bright colour to make
    it easily recognizable.
  _sprite: {fileID: 21300000, guid: 31258f39c11a37e45895e8d9aedf3c62, type: 3}
  isWaterAnimal: 0
  isCaveAnimal: 0
  isSnowAnimal: 0
  isTransport: 1
  _rotation: {x: 0, y: 0, z: 0, w: 0}
