%YAML 1.1
%TAG !u! tag:unity3d.com,2011:
--- !u!114 &11400000
MonoBehaviour:
  m_ObjectHideFlags: 0
  m_PrefabParentObject: {fileID: 0}
  m_PrefabInternal: {fileID: 0}
  m_GameObject: {fileID: 0}
  m_Enabled: 1
  m_EditorHideFlags: 0
  m_Script: {fileID: 11500000, guid: 48dfa594a1a1eff49a477db0e4603137, type: 3}
  m_Name: Umbrella
  m_EditorClassIdentifier: 
  modelName: Umbrella
  alphabetCharacter: U
  idleSound: {fileID: 0}
  modelDescription: An umbrella protects us from the sun rays and rain. It is made
    from waterproof fabrics.
  _sprite: {fileID: 21300000, guid: a0c6db42292390f4ab9b14e4a0873c6f, type: 3}
  isWaterAnimal: 0
  isCaveAnimal: 0
  isSnowAnimal: 0
  isTransport: 1
  _rotation: {x: 0, y: 0, z: 0, w: 0}
