%YAML 1.1
%TAG !u! tag:unity3d.com,2011:
--- !u!114 &11400000
MonoBehaviour:
  m_ObjectHideFlags: 0
  m_PrefabParentObject: {fileID: 0}
  m_PrefabInternal: {fileID: 0}
  m_GameObject: {fileID: 0}
  m_Enabled: 1
  m_EditorHideFlags: 0
  m_Script: {fileID: 11500000, guid: 48dfa594a1a1eff49a477db0e4603137, type: 3}
  m_Name: XmasTree
  m_EditorClassIdentifier: 
  modelName: XmasTree
  alphabetCharacter: X
  idleSound: {fileID: 0}
  modelDescription: An Xmas tree is kept inside the house to celebrate Christmas.
    The tree is made from evergreen trees such as fir, spruce, and pine.
  _sprite: {fileID: 21300000, guid: cbac51af38680d5489126d80e9faaf67, type: 3}
  isWaterAnimal: 0
  isCaveAnimal: 0
  isSnowAnimal: 0
  isTransport: 0
  _rotation: {x: 0, y: 0, z: 0, w: 0}
